ANSYS利用立場: 利用する立場,ANSYS利用立場: 利用及び評価・検証をする立場,ANSYS利用立場: 管理・統括をする立場,ANSYS利用立場:利用及び検討には関与しない(契約・手続きのみ),２、導入時に期待したことを現在ではどのくらい実現できておりますでしょうか？,"ANSYS利用頻度(毎日:1, それ以外:0)","ANSYS利用頻度(1週間に一度以上:1, それ以外:0)","ANSYS利用頻度(1ヶ月に1度以上:1, それ以外:0)",５-a、今後、行いたい解析はありますか？,６、サポート窓口に関するご感想をお聞かせください　※複数回答可,７、担当営業に関するご感想をお聞かせください　※複数回答可,８、 A0SYSを他社や同僚・友人におすすめしようと思うほどご満足いただけていましたでしょうか？,９、エンジニアリングサービス(受託解析サービス、等)にご関心はありますでしょうか？,１０、教育プログラム（技術トレーニング、等）にご関心はありますでしょうか？,従業員規模：5百人未満,従業員規模：5百人以上,従業員規模：1～5千人,従業員規模：5～10千人,従業員規模：1万人以上,従業員規模：不明,売上規模：5億円未満,売上規模：5億円以上,売上規模：10億円以上,売上規模：50億円以上,売上規模：100億円以上,売上規模：不明
0,1,1,0,,1,1,1,1,1,1,,0,0,0,0,0,0,0,1,0,0,0,0,0,1
1,0,0,0,0,0,0,1,1,0,0,0,0,1,0,1,0,0,0,0,0,0,0,0,1,0
1,0,0,0,,0,1,1,1,,,,0,0,0,0,0,0,0,1,0,0,0,0,0,1
1,0,0,0,,0,0,0,1,1,1,,0,0,0,1,0,0,0,0,0,0,0,0,1,0
0,1,1,0,0,0,0,0,1,1,1,,1,1,0,1,0,0,0,0,0,0,0,0,1,0
1,0,0,0,0,1,1,1,1,,,0,0,0,1,0,0,0,0,0,1,0,0,0,0,0
1,0,0,0,1,0,1,1,0,,,,0,0,0,0,0,1,0,0,0,0,0,0,1,0
0,1,1,0,,1,1,1,1,,0,0,0,1,0,0,1,0,0,0,0,0,0,0,1,0
0,0,1,0,0,0,0,0,0,,,0,1,1,1,0,0,0,0,0,0,0,1,0,0,0
0,1,0,0,,1,1,1,0,1,,,0,0,1,0,0,0,0,0,0,0,0,1,0,0
0,1,0,0,0,0,0,1,0,,,0,0,1,1,0,0,0,0,0,0,0,0,0,1,0
0,0,0,1,0,0,0,1,0,,1,0,1,1,0,0,0,0,0,1,0,0,0,0,0,1
1,0,0,0,1,1,1,1,1,1,1,,0,1,0,0,1,0,0,0,0,0,0,0,1,0
0,0,1,0,0,1,1,1,0,1,1,0,0,1,1,0,0,0,0,0,0,0,0,1,0,0
0,1,1,0,0,0,0,0,1,1,0,0,0,0,0,0,0,0,0,1,0,0,0,0,0,1
0,0,1,1,,1,1,1,1,0,1,0,1,1,1,0,0,0,0,0,0,0,0,1,0,0
1,1,0,0,0,0,0,1,0,1,,0,0,1,0,0,0,0,0,1,0,0,0,0,0,1
0,1,0,0,0,0,0,1,1,,,0,1,1,0,1,0,0,0,0,0,0,0,0,1,0
1,0,0,0,0,1,1,1,1,,,,0,1,1,0,0,0,0,0,1,0,0,0,0,0
0,1,0,0,0,1,1,1,1,1,,,1,1,0,0,1,0,0,0,0,0,0,0,1,0
1,0,0,0,0,0,0,0,0,,1,0,1,1,0,1,0,0,0,0,0,0,0,0,1,0
1,1,1,0,0,0,0,1,1,1,,0,1,1,0,1,0,0,0,0,0,0,0,0,1,0
1,1,0,0,0,0,0,0,1,0,,0,0,1,0,0,0,0,0,1,0,0,0,0,0,1
0,1,0,0,,1,1,1,0,,1,0,0,1,0,1,0,0,0,0,0,0,0,0,1,0
1,0,0,0,,0,0,1,0,1,,0,0,1,1,0,0,0,0,0,0,0,0,0,1,0
0,1,0,0,0,0,0,0,1,1,1,,1,1,0,0,1,0,0,0,0,0,0,0,1,0
1,0,0,0,,0,0,0,1,,,,1,1,0,0,1,0,0,0,0,0,0,0,1,0
1,0,0,0,,0,1,1,1,,0,,1,1,0,1,0,0,0,0,0,0,0,0,1,0
1,1,1,0,,1,1,1,1,0,1,0,1,1,1,0,0,0,0,0,0,0,0,1,0,0
0,1,0,0,0,0,0,0,1,1,,0,0,0,0,0,0,1,0,0,0,0,0,0,1,0
1,0,0,0,0,0,0,0,1,,,0,0,0,0,0,1,0,0,0,0,0,0,0,1,0
0,1,0,0,,1,1,1,1,1,1,,1,1,0,0,1,0,0,0,0,0,0,0,1,0
0,1,0,0,0,1,1,1,1,1,1,,1,1,0,1,0,0,0,0,0,0,0,0,1,0
1,0,0,0,,0,1,1,1,1,1,,0,0,0,0,1,0,0,0,0,0,0,0,1,0
1,1,0,0,0,0,0,0,1,1,1,0,1,0,0,1,0,0,0,0,0,0,0,0,1,0
1,1,0,0,0,1,1,1,1,,,0,0,1,0,0,1,0,0,0,0,0,0,0,1,0
1,0,1,0,,1,1,1,0,1,1,,1,1,0,0,1,0,0,0,0,0,0,0,1,0
1,1,0,0,0,0,0,0,1,,,1,1,1,0,0,1,0,0,0,0,0,0,0,1,0
1,0,0,0,,0,1,1,1,1,0,,1,1,0,1,0,0,0,0,0,0,0,0,1,0
1,1,1,0,,0,1,1,0,1,1,1,1,1,0,1,0,0,0,0,0,0,0,0,1,0
1,0,0,0,,1,1,1,0,1,,,1,1,0,0,0,0,1,0,0,0,0,0,1,0
0,1,1,0,,0,1,1,1,,,0,0,1,0,0,0,0,0,1,0,0,0,0,0,1
0,1,0,0,,0,1,1,1,1,1,,0,1,0,0,1,0,0,0,0,0,0,0,1,0
0,1,0,0,,0,1,1,1,1,1,,0,1,1,0,0,0,0,0,0,0,1,0,0,0
1,0,0,0,0,0,1,1,0,1,,0,0,1,1,0,0,0,0,0,0,0,0,0,1,0
0,0,1,0,,0,0,0,0,,1,,0,0,0,1,0,0,0,0,0,0,0,0,1,0
0,1,1,0,,1,1,1,1,1,1,,1,1,0,0,1,0,0,0,0,0,0,0,1,0
1,0,0,0,,0,1,1,1,1,,,0,1,0,0,1,0,0,0,0,0,0,0,1,0
1,1,0,0,,1,1,1,1,1,1,,0,1,0,0,1,0,0,0,0,0,0,0,1,0
1,0,0,0,,0,0,1,1,,,0,0,1,1,0,0,0,0,0,1,0,0,0,0,0
1,0,0,0,0,0,0,1,1,1,,0,0,1,0,0,0,0,0,1,0,0,0,0,0,1
1,1,1,0,,1,1,1,1,1,,,1,1,1,0,0,0,0,0,0,0,0,0,1,0
1,0,0,0,1,0,1,1,0,,,0,0,0,1,0,0,0,0,0,1,0,0,0,0,0
0,1,1,0,0,0,0,1,1,,,0,1,1,1,0,0,0,0,0,0,0,1,0,0,0
0,0,0,1,0,0,1,1,0,,,0,0,1,1,0,0,0,0,0,0,0,0,1,0,0
0,0,0,1,,0,0,1,0,1,,,0,0,0,0,1,0,0,0,0,0,0,0,1,0
0,1,0,0,1,0,1,1,1,1,1,1,1,1,0,0,0,0,0,1,0,0,0,0,0,1
1,0,0,0,0,0,0,1,1,,,,0,1,0,0,0,0,0,1,0,0,0,0,0,1
1,0,0,0,0,0,1,1,1,,,0,1,1,0,1,0,0,0,0,0,0,0,0,1,0
1,0,0,0,0,1,1,1,1,1,0,0,0,1,0,0,0,0,0,1,0,0,0,0,0,1
0,1,0,0,1,0,0,0,1,,,,1,1,1,0,0,0,0,0,1,0,0,0,0,0
1,0,0,0,1,0,1,1,0,1,1,0,0,1,1,0,0,0,0,0,0,0,1,0,0,0
0,1,0,0,0,0,0,1,1,,,,0,1,1,0,0,0,0,0,0,1,0,0,0,0
1,1,1,0,0,0,1,1,1,1,,0,1,1,1,0,0,0,0,0,0,0,0,1,0,0
1,0,1,0,0,0,1,1,1,1,,0,0,0,1,0,0,0,0,0,1,0,0,0,0,0
0,0,0,1,1,0,0,0,1,,,0,0,0,0,0,1,0,0,0,0,0,0,0,1,0
0,1,0,0,,0,0,1,1,1,1,,1,1,1,0,0,0,0,0,0,0,1,0,0,0
1,0,1,0,0,0,0,1,1,,,0,0,1,1,0,0,0,0,0,0,0,0,1,0,0
0,1,1,0,0,0,1,1,1,,,0,0,1,1,0,0,0,0,0,1,0,0,0,0,0
1,0,0,0,0,0,1,1,1,,,0,0,1,0,0,1,0,0,0,0,0,0,0,1,0
1,0,1,0,0,0,1,1,0,,,0,0,1,0,0,0,0,0,1,0,0,0,0,0,1
1,0,0,0,1,1,1,1,1,1,,1,0,0,0,0,0,0,0,1,0,0,0,0,0,1
1,1,1,0,0,0,0,1,1,,,,0,1,0,0,0,0,0,1,0,0,0,0,0,1
1,1,1,0,,1,1,1,1,1,1,,1,0,1,0,0,0,0,0,1,0,0,0,0,0
0,0,1,0,,1,1,1,1,,1,,0,0,0,0,1,0,0,0,0,0,0,0,1,0
1,0,0,0,1,0,0,0,1,1,1,,1,0,1,0,0,0,0,0,1,0,0,0,0,0
0,1,1,0,,1,1,1,1,1,1,,0,1,0,0,1,0,0,0,0,0,0,0,1,0
1,0,1,0,0,0,0,0,1,,,0,1,0,1,0,0,0,0,0,1,0,0,0,0,0
0,1,0,0,1,0,0,0,0,1,,1,0,1,1,0,0,0,0,0,1,0,0,0,0,0
0,1,1,0,0,0,1,1,1,1,,0,1,1,0,0,1,0,0,0,0,0,0,0,1,0
1,0,1,0,0,0,0,0,0,,,0,0,0,0,1,0,0,0,0,0,0,0,0,1,0
0,1,0,0,1,0,0,1,0,,,0,1,1,1,0,0,0,0,0,0,0,0,0,1,0
1,1,1,0,,1,1,1,1,1,1,0,0,1,1,0,0,0,0,0,1,0,0,0,0,0
1,1,1,0,,0,0,0,1,1,1,,1,1,0,0,0,0,0,1,0,0,0,0,0,1
1,0,0,0,0,0,1,1,1,,,,0,1,1,0,0,0,0,0,1,0,0,0,0,0
0,1,0,0,0,0,0,1,1,,,,0,1,1,0,0,0,0,0,0,0,0,0,1,0
1,0,0,0,0,0,0,0,0,,,0,0,1,0,0,0,0,0,1,0,0,0,0,0,1
0,1,1,0,,1,1,1,1,1,,1,0,0,1,0,0,0,0,0,0,0,0,0,1,0
1,0,0,0,0,0,1,1,0,,0,0,0,1,0,0,1,0,0,0,0,0,0,0,1,0
1,0,0,0,,0,1,1,1,1,1,,0,1,1,0,0,0,0,0,1,0,0,0,0,0
0,0,1,0,1,0,0,0,0,,1,0,0,0,1,0,0,0,0,0,1,0,0,0,0,0
1,1,0,0,1,1,1,1,1,1,1,1,0,1,0,0,0,0,0,0,0,0,0,0,0,0
1,0,0,0,1,0,1,1,0,,,0,0,1,1,0,0,0,0,0,0,0,0,0,1,0
1,0,0,0,1,0,0,1,0,,,0,0,0,0,1,0,0,0,0,0,0,0,0,1,0
0,1,0,0,0,0,1,1,1,,,,1,1,1,0,0,0,0,0,0,0,0,0,1,0
1,1,1,0,0,0,1,1,1,,0,,1,1,1,0,0,0,0,0,0,1,0,0,0,0
1,0,1,0,,0,1,1,0,,,,0,1,1,0,0,0,0,0,1,0,0,0,0,0
1,0,0,0,0,0,1,1,1,1,1,0,0,1,0,0,0,0,0,1,0,0,0,0,0,1
0,1,0,0,0,0,0,0,1,1,1,0,0,1,0,1,0,0,0,0,0,0,0,0,1,0
1,0,0,0,0,0,0,0,0,,,0,0,0,0,1,0,0,0,0,0,0,0,0,1,0
0,0,1,1,,1,1,1,1,1,,0,1,0,0,0,1,0,0,0,0,0,0,0,1,0
1,1,0,0,1,1,1,1,1,1,1,1,1,1,1,0,0,0,0,0,1,0,0,0,0,0
1,0,0,0,0,0,0,0,1,,,0,1,1,1,0,0,0,0,0,0,0,0,0,1,0
1,1,0,0,0,1,1,1,1,1,,0,0,1,1,0,0,0,0,0,0,0,0,1,0,0
1,1,1,0,1,1,1,1,1,1,1,0,0,1,0,1,0,0,0,0,0,0,0,0,1,0
0,0,0,1,0,1,1,1,1,,1,0,0,0,1,0,0,0,0,0,0,0,0,0,1,0
1,0,0,0,,1,1,1,1,,,,1,1,1,0,0,0,0,0,0,0,0,0,1,0
0,0,1,1,0,1,1,1,1,1,1,,1,1,0,0,1,0,0,0,0,0,0,0,1,0
1,0,0,0,,0,1,1,1,,,,0,1,0,1,0,0,0,0,0,0,0,0,1,0
0,0,1,0,,1,1,1,0,1,1,1,0,0,1,0,0,0,0,0,0,0,0,1,0,0
0,0,1,0,,0,1,1,1,1,1,,0,1,1,0,0,0,0,0,1,0,0,0,0,0
1,0,0,0,,0,1,1,0,,,,0,0,0,0,0,0,0,1,0,0,0,0,0,1
1,0,0,0,0,0,0,1,0,,,0,0,0,0,0,1,0,0,0,0,0,0,0,1,0
0,1,0,0,0,0,1,1,1,1,1,0,0,1,1,0,0,0,0,0,0,0,0,1,0,0
1,1,1,0,0,0,0,0,0,,,0,0,0,1,0,0,0,0,0,1,0,0,0,0,0
1,0,0,0,,0,0,1,0,,,,0,1,0,0,1,0,0,0,0,0,0,0,1,0
0,1,1,0,1,0,1,1,0,,,1,0,1,1,0,0,0,0,0,0,0,1,0,0,0
1,0,0,0,0,0,0,0,1,,,,0,1,1,0,0,0,0,0,1,0,0,0,0,0
1,0,0,0,,1,1,1,0,,,0,0,0,0,0,1,0,0,0,0,0,0,0,1,0
1,1,0,0,,0,1,1,1,1,,0,0,1,1,0,0,0,0,0,1,0,0,0,0,0
1,0,0,0,0,1,1,1,1,,,0,0,0,0,0,0,0,0,1,0,0,0,0,0,1